{
  "project_info": {
    "project_number": "277498087463",
    "firebase_url": "https://diensten-talent.firebaseio.com",
    "project_id": "diensten-talent",
    "storage_bucket": "diensten-talent.appspot.com"
  },
  "client": [
    {
      "client_info": {
        "mobilesdk_app_id": "1:277498087463:android:b1334053c2e57991f1e602",
        "android_client_info": {
          "package_name": "com.example.iiatimd_diensten_talent"
        }
      },
      "oauth_client": [
        {
          "client_id": "277498087463-3puepph0tjrrmqhoos36jdhaghp74tqh.apps.googleusercontent.com",
          "client_type": 3
        }
      ],
      "api_key": [
        {
          "current_key": "AIzaSyAehq6OYeWVBInhVm9vkiHQeKdAsGm7zYM"
        }
      ],
      "services": {
        "appinvite_service": {
          "other_platform_oauth_client": [
            {
              "client_id": "277498087463-3puepph0tjrrmqhoos36jdhaghp74tqh.apps.googleusercontent.com",
              "client_type": 3
            }
          ]
        }
      }
    }
  ],
  "configuration_version": "1"
}